word,count
porttitor,17
curae,18
odio,20
sociosqu,11
volutpat,14
interdum,18
pretium,11
hendrerit,21
sagittis,13
netus,17
velit,12
hymenaeos,13
lorem,13
nam,10
vitae,16
molestie,10
penatibus,13
non,13
placerat,18
quam,11
arcu,18
ante,18
dui,16
sit,19
fermentum,20
erat,13
ornare,7
quisque,21
facilisi,8
laoreet,22
per,12
malesuada,13
bibendum,11
ridiculus,9
rhoncus,18
diam,20
in,14
fringilla,12
natoque,17
tempus,20
praesent,21
enim,17
commodo,9
vivamus,22
ultricies,13
vel,18
ultrices,10
nullam,13
donec,17
taciti,13
potenti,11
accumsan,10
mauris,11
magnis,15
magna,5
curabitur,10
justo,11
lacus,10
mattis,11
egestas,16
consequat,11
conubia,16
aliquet,10
semper,16
ligula,12
dolor,15
eros,14
vestibulum,12
tincidunt,10
inceptos,18
neque,12
pede,11
auctor,10
purus,21
congue,12
venenatis,18
eu,14
urna,19
cras,9
iaculis,9
etiam,21
imperdiet,11
habitant,21
aenean,12
hac,15
eget,16
vehicula,15
gravida,5
dictumst,9
porta,13
aptent,11
sapien,18
integer,17
suscipit,13
nisi,8
ad,14
mus,10
felis,11
MAIORES QUE 10,115
vulputate,9
sodales,14
turpis,12
faucibus,12
mollis,17
elementum,8
pulvinar,14
cum,13
dapibus,17
convallis,17
montes,22
ac,14
nibh,12
phasellus,8
luctus,13
varius,12
euismod,8
maecenas,14
platea,11
leo,17
sem,10
litora,15
feugiat,13
lectus,15
lacinia,13
lobortis,7
class,10
nostra,9
metus,8
nulla,7
nec,15
dis,17
dignissim,10
posuere,12
nisl,8
tristique,11
nascetur,25
proin,9
parturient,10
ipsum,10
morbi,14
dictum,15
fames,8
facilisis,15
at,14
cursus,12
sed,10
tempor,11
orci,18
aliquam,14
habitasse,14
torquent,13
mi,10
blandit,12
et,14
a,19
libero,11
quis,9
tortor,10
cubilia,15
nunc,13
ut,11
tellus,20
fusce,7
augue,9
primis,7
id,11
eleifend,13
sociis,17
rutrum,17
viverra,13
massa,8
pharetra,11
nonummy,12
est,11
elit,13
amet,12
senectus,11
duis,18
adipiscing,14
risus,12
